…
## 5) 25 palabras más frecuentes de los reviews

``` r
top_25_palabras <- reviews %>%
  unnest_tokens(word, text) %>%
  anti_join(stop_words, by = "word") %>%
  count(word, sort = TRUE) %>%
  filter(word != "br") %>% 
  slice_head(n = 25)

top_25_palabras
```

    ## # A tibble: 25 × 2
    ##    word           n
    ##    <chr>      <int>
    ##  1 product   105919
    ##  2 love       53987
    ##  3 time       40077
    ##  4 easy       35437
    ##  5 price      27180
    ##  6 nice       26551
    ##  7 bought     26309
    ##  8 recommend  25255
    ##  9 quality    24684
    ## 10 day        24556
    ## # ℹ 15 more rows
