…
# Llenamos los valores NA con 0
reporte_por_rol <- reporte_por_rol %>%
  mutate(
    num_actores = ifelse(is.na(num_actores), 0, num_actores),
    num_actrices = ifelse(is.na(num_actrices), 0, num_actrices),
    num_directores = ifelse(is.na(num_directores), 0, num_directores)
  )

reporte_por_rol
```

    ## # A tibble: 1,174,613 × 5
    ##    role                    num_peliculas num_actores num_actrices num_directores
    ##    <chr>                           <int>       <dbl>        <dbl>          <int>
    ##  1 "\"Abe Lincoln\""                   1           1            0              1
    ##  2 "\"American Eagle\""                1           1            0              1
    ##  3 "\"Astoria\" Owner"                 1           0            1              1
    ##  4 "\"Bar From Hell\" Pat…             1           1            0              1
    ##  5 "\"Bellucci\" Grabowsk…             1           1            0              3
    ##  6 "\"Betsy Ross\""                    1           0            1              1
    ##  7 "\"Betty Bumcakes\" Ac…             1           1            0              1
    ##  8 "\"Betty Bumcakes\" Bo…             1           1            0              1
    ##  9 "\"Betty Bumcakes\" DP"             1           1            0              1
    ## 10 "\"Betty Bumcakes\" Di…             1           1            0              1
    ## # ℹ 1,174,603 more rows
…
# Unir todo
reporte_directores <- directors %>%
  left_join(peliculas_por_director, by = c("id" = "director_id")) %>%
  left_join(actores_por_director, by = c("id" = "director_id")) %>%
  left_join(genero_comun_por_director, by = c("id" = "director_id"))

reporte_directores
```

    ## # A tibble: 86,880 × 6
    ##       id first_name         last_name   num_peliculas num_actores genre      
    ##    <dbl> <chr>              <chr>               <int>       <int> <chr>      
    ##  1     1 Todd               1                       1           1 <NA>       
    ##  2     2 Les                12 Poissons             1           2 Short      
    ##  3     3 Lejaren            a'Hiller                2          15 Drama      
    ##  4     4 Nian               A                       1           1 <NA>       
    ##  5     5 Khairiya           A-Mansour               1           1 Documentary
    ##  6     6 Ricardo            A. Solla                1           3 Drama      
    ##  7     8 Kodanda Rami Reddy A.                     35          86 Action     
    ##  8     9 Nageswara Rao      A.                      1           1 <NA>       
    ##  9    10 Yuri               A.                      1           1 Comedy     
    ## 10    11 Swamy              A.S.A.                  1           2 Drama      
    ## # ℹ 86,870 more rows
…
